Measure Convergence Plotting File

Analysis: Statique1_3F

39 columns
3 rows
col    quantity
1  p-loop pass number
2  total_cost  11276
3  total_mass  11282
4  com_x  11492
5  com_y  11498
6  com_z  11504
7  inertia_xx  11510
8  inertia_xy  11516
9  inertia_xz  11522
10  inertia_yy  11528
11  inertia_yz  11534
12  inertia_zz  11540
13  max_beam_bending  11294
14  max_beam_tensile  11300
15  max_beam_torsion  11564
16  max_beam_total  11306
17  max_disp_mag  11312
18  max_disp_x  11318
19  max_disp_y  11324
20  max_disp_z  11330
21  max_prin_mag  11360
22  max_rot_mag  11336
23  max_rot_x  11342
24  max_rot_y  11348
25  max_rot_z  11354
26  max_stress_prin  11480
27  max_stress_vm  11366
28  max_stress_xx  11372
29  max_stress_xy  11390
30  max_stress_xz  11396
31  max_stress_yy  11378
32  max_stress_yz  11402
33  max_stress_zz  11384
34  min_stress_prin  11486
35  strain_energy  11408
36  DeplacementTheta  155134
37  DeplacementX  155110
38  DeplacementY  155118
39  DeplacementZ  155126

MEASURE_DATA
  1   0.000000e+00   2.962738e-03  -1.064792e-02   8.070318e-09  -4.389784e-03
      2.602608e+01  -7.226564e-08   1.443822e-03   5.185765e+01   8.827042e-08
      2.602318e+01   0.000000e+00   0.000000e+00   0.000000e+00   0.000000e+00
      0.000000e+00   0.000000e+00   0.000000e+00   0.000000e+00   0.000000e+00
      0.000000e+00   0.000000e+00   0.000000e+00   0.000000e+00   0.000000e+00
      0.000000e+00   0.000000e+00   0.000000e+00   0.000000e+00   0.000000e+00
      0.000000e+00   0.000000e+00   0.000000e+00   1.299851e+05   0.000000e+00
      0.000000e+00   0.000000e+00   0.000000e+00

      0.000000e+00   2.962738e-03   1.064792e-02   1.064792e-02   1.064792e-02
      5.185765e+01   5.185765e+01   5.185765e+01   5.185765e+01   5.185765e+01
      5.185765e+01   0.000000e+00   0.000000e+00   0.000000e+00   0.000000e+00
      0.000000e+00   0.000000e+00   0.000000e+00   0.000000e+00   0.000000e+00
      0.000000e+00   0.000000e+00   0.000000e+00   0.000000e+00   0.000000e+00
      0.000000e+00   0.000000e+00   0.000000e+00   0.000000e+00   0.000000e+00
      0.000000e+00   0.000000e+00   0.000000e+00   1.299851e+05   0.000000e+00
      0.000000e+00   0.000000e+00   0.000000e+00

  1   0.000000e+00   2.962738e-03  -1.064792e-02   8.070318e-09  -4.389784e-03
      2.602608e+01  -7.226564e-08   1.443822e-03   5.185765e+01   8.827042e-08
      2.602318e+01   0.000000e+00   0.000000e+00   0.000000e+00   0.000000e+00
      0.000000e+00   0.000000e+00   0.000000e+00   0.000000e+00   0.000000e+00
      0.000000e+00   0.000000e+00   0.000000e+00   0.000000e+00   0.000000e+00
      0.000000e+00   0.000000e+00   0.000000e+00   0.000000e+00   0.000000e+00
      0.000000e+00   0.000000e+00   0.000000e+00   1.232161e+05   0.000000e+00
      0.000000e+00   0.000000e+00   0.000000e+00

      0.000000e+00   2.962738e-03   1.064792e-02   1.064792e-02   1.064792e-02
      5.185765e+01   5.185765e+01   5.185765e+01   5.185765e+01   5.185765e+01
      5.185765e+01   0.000000e+00   0.000000e+00   0.000000e+00   0.000000e+00
      0.000000e+00   0.000000e+00   0.000000e+00   0.000000e+00   0.000000e+00
      0.000000e+00   0.000000e+00   0.000000e+00   0.000000e+00   0.000000e+00
      0.000000e+00   0.000000e+00   0.000000e+00   0.000000e+00   0.000000e+00
      0.000000e+00   0.000000e+00   0.000000e+00   1.232161e+05   0.000000e+00
      0.000000e+00   0.000000e+00   0.000000e+00

  1   0.000000e+00   2.962738e-03  -1.064792e-02   8.070318e-09  -4.389784e-03
      2.602608e+01  -7.226564e-08   1.443822e-03   5.185765e+01   8.827042e-08
      2.602318e+01   0.000000e+00   0.000000e+00   0.000000e+00   0.000000e+00
      0.000000e+00   0.000000e+00   0.000000e+00   0.000000e+00   0.000000e+00
      0.000000e+00   0.000000e+00   0.000000e+00   0.000000e+00   0.000000e+00
      0.000000e+00   0.000000e+00   0.000000e+00   0.000000e+00   0.000000e+00
      0.000000e+00   0.000000e+00   0.000000e+00   1.283199e+05   0.000000e+00
      0.000000e+00   0.000000e+00   0.000000e+00

      0.000000e+00   2.962738e-03   1.064792e-02   1.064792e-02   1.064792e-02
      5.185765e+01   5.185765e+01   5.185765e+01   5.185765e+01   5.185765e+01
      5.185765e+01   0.000000e+00   0.000000e+00   0.000000e+00   0.000000e+00
      0.000000e+00   0.000000e+00   0.000000e+00   0.000000e+00   0.000000e+00
      0.000000e+00   0.000000e+00   0.000000e+00   0.000000e+00   0.000000e+00
      0.000000e+00   0.000000e+00   0.000000e+00   0.000000e+00   0.000000e+00
      0.000000e+00   0.000000e+00   0.000000e+00   1.283199e+05   0.000000e+00
      0.000000e+00   0.000000e+00   0.000000e+00

  2   0.000000e+00   2.962738e-03  -1.064792e-02   8.070318e-09  -4.389784e-03
      2.602608e+01  -7.226564e-08   1.443822e-03   5.185765e+01   8.827042e-08
      2.602318e+01   0.000000e+00   0.000000e+00   0.000000e+00   0.000000e+00
      7.371596e+03  -4.718588e+03  -1.176281e+00  -7.158732e+03  -3.571016e+05
      0.000000e+00   0.000000e+00   0.000000e+00   0.000000e+00   3.312462e+05
      3.650954e+05  -3.200065e+05  -2.687468e+04  -1.556803e+05   1.195110e+05
      4.201586e+04  -3.249451e+05  -3.571016e+05   1.558715e+05   0.000000e+00
      0.000000e+00   0.000000e+00   0.000000e+00

      0.000000e+00   2.962738e-03   1.064792e-02   1.064792e-02   1.064792e-02
      5.185765e+01   5.185765e+01   5.185765e+01   5.185765e+01   5.185765e+01
      5.185765e+01   3.650954e+05   3.650954e+05   3.650954e+05   3.650954e+05
      7.371596e+03   7.371596e+03   7.371596e+03   7.371596e+03   3.650954e+05
      0.000000e+00   0.000000e+00   0.000000e+00   0.000000e+00   3.650954e+05
      3.650954e+05   3.650954e+05   3.650954e+05   3.650954e+05   3.650954e+05
      3.650954e+05   3.650954e+05   3.650954e+05   1.558715e+05   0.000000e+00
      7.371596e+03   7.371596e+03   7.371596e+03

  2   0.000000e+00   2.962738e-03  -1.064792e-02   8.070318e-09  -4.389784e-03
      2.602608e+01  -7.226564e-08   1.443822e-03   5.185765e+01   8.827042e-08
      2.602318e+01   0.000000e+00   0.000000e+00   0.000000e+00   0.000000e+00
      7.303028e+03  -5.569363e+03   1.827132e+00   6.516825e+03  -3.471787e+05
      0.000000e+00   0.000000e+00   0.000000e+00   0.000000e+00   3.462339e+05
      3.082523e+05  -2.652387e+05   2.789636e+04   1.625996e+05   1.152133e+05
      2.976694e+04   2.743688e+05  -3.471787e+05   1.544839e+05   0.000000e+00
      0.000000e+00   0.000000e+00   0.000000e+00

      0.000000e+00   2.962738e-03   1.064792e-02   1.064792e-02   1.064792e-02
      5.185765e+01   5.185765e+01   5.185765e+01   5.185765e+01   5.185765e+01
      5.185765e+01   3.471787e+05   3.471787e+05   3.471787e+05   3.471787e+05
      7.303028e+03   7.303028e+03   7.303028e+03   7.303028e+03   3.471787e+05
      0.000000e+00   0.000000e+00   0.000000e+00   0.000000e+00   3.471787e+05
      3.471787e+05   3.471787e+05   3.471787e+05   3.471787e+05   3.471787e+05
      3.471787e+05   3.471787e+05   3.471787e+05   1.544839e+05   0.000000e+00
      7.303028e+03   7.303028e+03   7.303028e+03

  2   0.000000e+00   2.962738e-03  -1.064792e-02   8.070318e-09  -4.389784e-03
      2.602608e+01  -7.226564e-08   1.443822e-03   5.185765e+01   8.827042e-08
      2.602318e+01   0.000000e+00   0.000000e+00   0.000000e+00   0.000000e+00
      7.318078e+03   7.306897e+03  -2.863975e+00  -3.723301e+03   3.947841e+05
      0.000000e+00   0.000000e+00   0.000000e+00   0.000000e+00   3.947841e+05
      3.864321e+05   3.750494e+05   3.131384e+04  -1.383281e+05  -1.029728e+05
      2.887955e+04   3.015794e+05  -3.153567e+05   1.546295e+05   0.000000e+00
      0.000000e+00   0.000000e+00   0.000000e+00

      0.000000e+00   2.962738e-03   1.064792e-02   1.064792e-02   1.064792e-02
      5.185765e+01   5.185765e+01   5.185765e+01   5.185765e+01   5.185765e+01
      5.185765e+01   3.947841e+05   3.947841e+05   3.947841e+05   3.947841e+05
      7.318078e+03   7.318078e+03   7.318078e+03   7.318078e+03   3.947841e+05
      0.000000e+00   0.000000e+00   0.000000e+00   0.000000e+00   3.947841e+05
      3.947841e+05   3.947841e+05   3.947841e+05   3.947841e+05   3.947841e+05
      3.947841e+05   3.947841e+05   3.947841e+05   1.546295e+05   0.000000e+00
      7.318078e+03   7.318078e+03   7.318078e+03

