Measure Convergence Plotting File

Analysis: Analysis3

13 columns
4 rows
col    quantity
1  p-loop pass number
2  total_cost  11276
3  total_mass  11282
4  com_x  11492
5  com_y  11498
6  com_z  11504
7  inertia_xx  11510
8  inertia_xy  11516
9  inertia_xz  11522
10  inertia_yy  11528
11  inertia_yz  11534
12  inertia_zz  11540
13  modal_frequency  11288

MEASURE_DATA
  1   0.000000e+00   2.962738e-03  -1.064721e-02   4.090406e-09  -4.390501e-03
      2.602608e+01   5.910435e-08   1.443843e-03   5.185766e+01   4.050946e-07
      2.602318e+01   2.365632e+01

      0.000000e+00   2.962738e-03   1.064721e-02   1.064721e-02   1.064721e-02
      5.185766e+01   5.185766e+01   5.185766e+01   5.185766e+01   5.185766e+01
      5.185766e+01   2.365632e+01

  1   0.000000e+00   2.962738e-03  -1.064721e-02   4.090406e-09  -4.390501e-03
      2.602608e+01   5.910435e-08   1.443843e-03   5.185766e+01   4.050946e-07
      2.602318e+01   2.694079e+01

      0.000000e+00   2.962738e-03   1.064721e-02   1.064721e-02   1.064721e-02
      5.185766e+01   5.185766e+01   5.185766e+01   5.185766e+01   5.185766e+01
      5.185766e+01   2.694079e+01

  1   0.000000e+00   2.962738e-03  -1.064721e-02   4.090406e-09  -4.390501e-03
      2.602608e+01   5.910435e-08   1.443843e-03   5.185766e+01   4.050946e-07
      2.602318e+01   5.602715e+01

      0.000000e+00   2.962738e-03   1.064721e-02   1.064721e-02   1.064721e-02
      5.185766e+01   5.185766e+01   5.185766e+01   5.185766e+01   5.185766e+01
      5.185766e+01   5.602715e+01

  1   0.000000e+00   2.962738e-03  -1.064721e-02   4.090406e-09  -4.390501e-03
      2.602608e+01   5.910435e-08   1.443843e-03   5.185766e+01   4.050946e-07
      2.602318e+01   5.747902e+01

      0.000000e+00   2.962738e-03   1.064721e-02   1.064721e-02   1.064721e-02
      5.185766e+01   5.185766e+01   5.185766e+01   5.185766e+01   5.185766e+01
      5.185766e+01   5.747902e+01

  2   0.000000e+00   2.962738e-03  -1.064721e-02   4.090406e-09  -4.390501e-03
      2.602608e+01   5.910435e-08   1.443843e-03   5.185766e+01   4.050946e-07
      2.602318e+01   2.365502e+01

      0.000000e+00   2.962738e-03   1.064721e-02   1.064721e-02   1.064721e-02
      5.185766e+01   5.185766e+01   5.185766e+01   5.185766e+01   5.185766e+01
      5.185766e+01   2.365502e+01

  2   0.000000e+00   2.962738e-03  -1.064721e-02   4.090406e-09  -4.390501e-03
      2.602608e+01   5.910435e-08   1.443843e-03   5.185766e+01   4.050946e-07
      2.602318e+01   2.565501e+01

      0.000000e+00   2.962738e-03   1.064721e-02   1.064721e-02   1.064721e-02
      5.185766e+01   5.185766e+01   5.185766e+01   5.185766e+01   5.185766e+01
      5.185766e+01   2.565501e+01

  2   0.000000e+00   2.962738e-03  -1.064721e-02   4.090406e-09  -4.390501e-03
      2.602608e+01   5.910435e-08   1.443843e-03   5.185766e+01   4.050946e-07
      2.602318e+01   5.348278e+01

      0.000000e+00   2.962738e-03   1.064721e-02   1.064721e-02   1.064721e-02
      5.185766e+01   5.185766e+01   5.185766e+01   5.185766e+01   5.185766e+01
      5.185766e+01   5.348278e+01

  2   0.000000e+00   2.962738e-03  -1.064721e-02   4.090406e-09  -4.390501e-03
      2.602608e+01   5.910435e-08   1.443843e-03   5.185766e+01   4.050946e-07
      2.602318e+01   5.451140e+01

      0.000000e+00   2.962738e-03   1.064721e-02   1.064721e-02   1.064721e-02
      5.185766e+01   5.185766e+01   5.185766e+01   5.185766e+01   5.185766e+01
      5.185766e+01   5.451140e+01

