Measure Convergence Plotting File

Analysis: Statique2_1D

39 columns
1 rows
col    quantity
1  p-loop pass number
2  total_cost  11276
3  total_mass  11282
4  com_x  11492
5  com_y  11498
6  com_z  11504
7  inertia_xx  11510
8  inertia_xy  11516
9  inertia_xz  11522
10  inertia_yy  11528
11  inertia_yz  11534
12  inertia_zz  11540
13  max_beam_bending  11294
14  max_beam_tensile  11300
15  max_beam_torsion  11564
16  max_beam_total  11306
17  max_disp_mag  11312
18  max_disp_x  11318
19  max_disp_y  11324
20  max_disp_z  11330
21  max_prin_mag  11360
22  max_rot_mag  11336
23  max_rot_x  11342
24  max_rot_y  11348
25  max_rot_z  11354
26  max_stress_prin  11480
27  max_stress_vm  11366
28  max_stress_xx  11372
29  max_stress_xy  11390
30  max_stress_xz  11396
31  max_stress_yy  11378
32  max_stress_yz  11402
33  max_stress_zz  11384
34  min_stress_prin  11486
35  strain_energy  11408
36  DeplacementTheta  155134
37  DeplacementX  155110
38  DeplacementZ  155126
39  Measure4  481682

MEASURE_DATA
  1   0.000000e+00   2.962738e-03  -1.064721e-02   4.090406e-09  -4.390501e-03
      2.602608e+01   5.910435e-08   1.443843e-03   5.185766e+01   4.050946e-07
      2.602318e+01   0.000000e+00   0.000000e+00   0.000000e+00   0.000000e+00
      0.000000e+00   0.000000e+00   0.000000e+00   0.000000e+00   0.000000e+00
      0.000000e+00   0.000000e+00   0.000000e+00   0.000000e+00   0.000000e+00
      0.000000e+00   0.000000e+00   0.000000e+00   0.000000e+00   0.000000e+00
      0.000000e+00   0.000000e+00   0.000000e+00   8.377771e-02   0.000000e+00
      0.000000e+00   0.000000e+00   0.000000e+00

      0.000000e+00   2.962738e-03   1.064721e-02   1.064721e-02   1.064721e-02
      5.185766e+01   5.185766e+01   5.185766e+01   5.185766e+01   5.185766e+01
      5.185766e+01   0.000000e+00   0.000000e+00   0.000000e+00   0.000000e+00
      0.000000e+00   0.000000e+00   0.000000e+00   0.000000e+00   0.000000e+00
      0.000000e+00   0.000000e+00   0.000000e+00   0.000000e+00   0.000000e+00
      0.000000e+00   0.000000e+00   0.000000e+00   0.000000e+00   0.000000e+00
      0.000000e+00   0.000000e+00   0.000000e+00   8.377771e-02   0.000000e+00
      0.000000e+00   0.000000e+00   0.000000e+00

  2   0.000000e+00   2.962738e-03  -1.064721e-02   4.090406e-09  -4.390501e-03
      2.602608e+01   5.910435e-08   1.443843e-03   5.185766e+01   4.050946e-07
      2.602318e+01   0.000000e+00   0.000000e+00   0.000000e+00   0.000000e+00
      2.575282e-01  -1.984649e-01  -4.692128e-04   2.319133e-01  -1.933584e+02
      0.000000e+00   0.000000e+00   0.000000e+00   0.000000e+00   1.834393e+02
      1.769075e+02  -1.735040e+02   2.139577e+01   7.654477e+01  -7.064873e+01
      4.498294e+01   1.734773e+02  -1.933584e+02   6.648317e-02   0.000000e+00
     -1.523166e-01   1.537569e-01   0.000000e+00

      0.000000e+00   2.962738e-03   1.064721e-02   1.064721e-02   1.064721e-02
      5.185766e+01   5.185766e+01   5.185766e+01   5.185766e+01   5.185766e+01
      5.185766e+01   1.933584e+02   1.933584e+02   1.933584e+02   1.933584e+02
      2.575282e-01   2.575282e-01   2.575282e-01   2.575282e-01   1.933584e+02
      0.000000e+00   0.000000e+00   0.000000e+00   0.000000e+00   1.933584e+02
      1.933584e+02   1.933584e+02   1.933584e+02   1.933584e+02   1.933584e+02
      1.933584e+02   1.933584e+02   1.933584e+02   6.648317e-02   0.000000e+00
      2.575282e-01   2.575282e-01   0.000000e+00

