Measure Convergence Plotting File

Analysis: Statique1_3D

38 columns
1 rows
col    quantity
1  p-loop pass number
2  total_cost  11276
3  total_mass  11282
4  com_x  11492
5  com_y  11498
6  com_z  11504
7  inertia_xx  11510
8  inertia_xy  11516
9  inertia_xz  11522
10  inertia_yy  11528
11  inertia_yz  11534
12  inertia_zz  11540
13  max_beam_bending  11294
14  max_beam_tensile  11300
15  max_beam_torsion  11564
16  max_beam_total  11306
17  max_disp_mag  11312
18  max_disp_x  11318
19  max_disp_y  11324
20  max_disp_z  11330
21  max_prin_mag  11360
22  max_rot_mag  11336
23  max_rot_x  11342
24  max_rot_y  11348
25  max_rot_z  11354
26  max_stress_prin  11480
27  max_stress_vm  11366
28  max_stress_xx  11372
29  max_stress_xy  11390
30  max_stress_xz  11396
31  max_stress_yy  11378
32  max_stress_yz  11402
33  max_stress_zz  11384
34  min_stress_prin  11486
35  strain_energy  11408
36  DeplacementPhi  623264
37  DeplacementX  155110
38  DeplacementZ  155126

MEASURE_DATA
  1   0.000000e+00   2.962738e-03  -1.064721e-02   4.090406e-09  -4.390501e-03
      2.602608e+01   5.910435e-08   1.443843e-03   5.185766e+01   4.050946e-07
      2.602318e+01   0.000000e+00   0.000000e+00   0.000000e+00   0.000000e+00
      0.000000e+00   0.000000e+00   0.000000e+00   0.000000e+00   0.000000e+00
      0.000000e+00   0.000000e+00   0.000000e+00   0.000000e+00   0.000000e+00
      0.000000e+00   0.000000e+00   0.000000e+00   0.000000e+00   0.000000e+00
      0.000000e+00   0.000000e+00   0.000000e+00   2.447425e-01   0.000000e+00
      0.000000e+00   0.000000e+00

      0.000000e+00   2.962738e-03   1.064721e-02   1.064721e-02   1.064721e-02
      5.185766e+01   5.185766e+01   5.185766e+01   5.185766e+01   5.185766e+01
      5.185766e+01   0.000000e+00   0.000000e+00   0.000000e+00   0.000000e+00
      0.000000e+00   0.000000e+00   0.000000e+00   0.000000e+00   0.000000e+00
      0.000000e+00   0.000000e+00   0.000000e+00   0.000000e+00   0.000000e+00
      0.000000e+00   0.000000e+00   0.000000e+00   0.000000e+00   0.000000e+00
      0.000000e+00   0.000000e+00   0.000000e+00   2.447425e-01   0.000000e+00
      0.000000e+00   0.000000e+00

  2   0.000000e+00   2.962738e-03  -1.064721e-02   4.090406e-09  -4.390501e-03
      2.602608e+01   5.910435e-08   1.443843e-03   5.185766e+01   4.050946e-07
      2.602318e+01   0.000000e+00   0.000000e+00   0.000000e+00   0.000000e+00
      1.177077e+00  -1.172179e+00   5.748325e-04  -1.067070e+00  -1.906031e+02
      0.000000e+00   0.000000e+00   0.000000e+00   0.000000e+00   1.858024e+02
      1.936136e+02  -1.678162e+02   1.869219e+01   9.193765e+01  -7.473145e+01
     -2.402338e+01   1.809867e+02  -1.906031e+02   2.038000e-01   0.000000e+00
     -1.368994e-04  -3.731702e-04

      0.000000e+00   2.962738e-03   1.064721e-02   1.064721e-02   1.064721e-02
      5.185766e+01   5.185766e+01   5.185766e+01   5.185766e+01   5.185766e+01
      5.185766e+01   1.936136e+02   1.936136e+02   1.936136e+02   1.936136e+02
      1.177077e+00   1.177077e+00   1.177077e+00   1.177077e+00   1.936136e+02
      0.000000e+00   0.000000e+00   0.000000e+00   0.000000e+00   1.936136e+02
      1.936136e+02   1.936136e+02   1.936136e+02   1.936136e+02   1.936136e+02
      1.936136e+02   1.936136e+02   1.936136e+02   2.038000e-01   0.000000e+00
      1.177077e+00   1.177077e+00

